axi_master/sim/test.vcd
$date
	Tue Aug 15 22:20:54 2023
$end
$version
	Icarus Verilog
$end
$timescale
	1s
$end
$scope module tb_axi_master_r $end
$var wire 32 ! CMD_ADDR [31:0] $end
$var wire 2 " CMD_BURST [1:0] $end
$var wire 32 # CMD_LEN [31:0] $end
$var wire 3 $ CMD_SIZE [2:0] $end
$var wire 1 % CMD_VALID $end
$var wire 1 & M_AXI_ARREADY $end
$var wire 32 ' M_AXI_RDATA [31:0] $end
$var wire 1 ( M_AXI_RLAST $end
$var wire 2 ) M_AXI_RRESP [1:0] $end
$var wire 1 * M_AXI_RVALID $end
$var wire 1 + M_AXI_RREADY $end
$var wire 1 , M_AXI_ARVALID $end
$var wire 3 - M_AXI_ARSIZE [2:0] $end
$var wire 8 . M_AXI_ARLEN [7:0] $end
$var wire 2 / M_AXI_ARBURST [1:0] $end
$var wire 32 0 M_AXI_ARADDR [31:0] $end
$var wire 1 1 CMD_READY $end
$var reg 1 2 clk $end
$var reg 32 3 r_cmd_addr [31:0] $end
$var reg 1 4 r_cmd_arready $end
$var reg 32 5 r_cmd_len [31:0] $end
$var reg 1 6 r_cmd_valid $end
$var reg 1 7 rst_n $end
$scope begin genblk1 $end
$upscope $end
$scope module u_axi_master_r $end
$var wire 32 8 M_AXI_ARADDR [31:0] $end
$var wire 2 9 M_AXI_ARBURST [1:0] $end
$var wire 8 : M_AXI_ARLEN [7:0] $end
$var wire 1 & M_AXI_ARREADY $end
$var wire 3 ; M_AXI_ARSIZE [2:0] $end
$var wire 1 , M_AXI_ARVALID $end
$var wire 32 < M_AXI_RDATA [31:0] $end
$var wire 1 ( M_AXI_RLAST $end
$var wire 1 + M_AXI_RREADY $end
$var wire 2 = M_AXI_RRESP [1:0] $end
$var wire 1 * M_AXI_RVALID $end
$var wire 1 2 clk $end
$var wire 32 > r_cmd_addr [31:0] $end
$var wire 2 ? r_cmd_burst [1:0] $end
$var wire 32 @ r_cmd_len [31:0] $end
$var wire 1 1 r_cmd_ready $end
$var wire 3 A r_cmd_size [2:0] $end
$var wire 1 % r_cmd_valid $end
$var wire 1 7 rst_n $end
$var reg 8 B addr_align_burst_comb [7:0] $end
$var reg 32 C ar_addr [31:0] $end
$var reg 2 D ar_burst [1:0] $end
$var reg 30 E ar_burst_outstanding [29:0] $end
$var reg 1 F ar_incr_burst $end
$var reg 1 G ar_last_outstanding $end
$var reg 30 H ar_len_t [29:0] $end
$var reg 1 I ar_multi_fixed_bursts $end
$var reg 1 J ar_multi_fixed_bursts_remaining $end
$var reg 1 K ar_multi_full_bursts $end
$var reg 1 L ar_multi_full_bursts_remaining $end
$var reg 1 M ar_need_4K_design $end
$var reg 9 N ar_next_burst [8:0] $end
$var reg 1 O ar_next_multi_fixed_bursts_remaining_comb $end
$var reg 1 P ar_next_multi_full_bursts_remaining_comb $end
$var reg 30 Q ar_next_requests_remaining_comb [29:0] $end
$var reg 1 R ar_none_fixed_burst $end
$var reg 1 S ar_none_incr_burst $end
$var reg 1 T ar_none_outstanding $end
$var reg 30 U ar_requests_remaining [29:0] $end
$var reg 3 V ar_size [2:0] $end
$var reg 1 W ar_zero_len $end
$var reg 1 X axi_abort_pending $end
$var reg 32 Y axi_araddr [31:0] $end
$var reg 2 Z axi_arburst [1:0] $end
$var reg 8 [ axi_arlen [7:0] $end
$var reg 3 \ axi_arsize [2:0] $end
$var reg 1 ] axi_arvalid $end
$var reg 1 ^ axi_rready $end
$var reg 9 _ initial_burst_len_comb [8:0] $end
$var reg 1 ` phantom_start $end
$var reg 1 a r_busy $end
$var reg 1 b r_cmd_fire_comb $end
$var reg 1 c r_complete_comb $end
$var reg 1 d r_pre_start $end
$var reg 1 e start_burst_comb $end
$upscope $end
$upscope $end
$enddefinitions $end
#0
$dumpvars
0e
1d
0c
0b
0a
0`
b0 _
0^
0]
b0 \
b0 [
b0 Z
b0 Y
0X
0W
b0 V
b0 U
1T
0S
0R
b0 Q
0P
0O
b0 N
0M
0L
0K
0J
0I
b0 H
0G
0F
b0 E
b0 D
b0 C
b0 B
b10 A
b0 @
b10 ?
b0 >
bz =
bz <
b0 ;
b0 :
b0 9
b0 8
07
06
b0 5
14
b0 3
02
11
b0 0
b0 /
b0 .
b0 -
0,
0+
z*
bz )
z(
bz '
1&
0%
b10 $
b0 #
b10 "
b0 !
$end
#5
12
#10
02
#15
12
#20
02
#25
12
#30
02
#35
12
#40
02
#45
12
#50
02
#55
12
#60
02
#65
12
#70
02
#75
12
#80
02
#85
12
#90
02
#95
12
#100
02
17
#105
0e
b1 _
1b
b11111111 .
b11111111 :
b11111111 [
1W
1F
b10 V
b1 H
b10 D
b100011111111 #
b100011111111 @
b100011111111 5
1%
16
12
#110
02
#115
0b
01
b100000000 _
b1 Q
1a
1I
1K
0W
b1001000000 H
1R
1S
b1 U
b1 N
b10 /
b10 9
b10 Z
b10 -
b10 ;
b10 \
12
#120
02
#125
1O
1P
b1001000000 Q
1e
b0 .
b0 :
b0 [
b100000000 N
0R
1J
0S
1L
b1001000000 U
0d
12
#130
02
#135
0e
b101000001 Q
1`
1,
1]
b11111111 .
b11111111 :
b11111111 [
12
#140
02
#145
1e
0T
1G
b1 E
1+
1^
b10000000000 0
b10000000000 8
b10000000000 Y
0,
0]
b101000001 U
0`
12
#150
02
#155
0P
b1000010 Q
0e
1`
1,
1]
12
#160
02
#165
1e
b100000000000 0
b100000000000 8
b100000000000 Y
0,
0]
b1000010 N
0L
b1000010 U
0`
12
#170
02
#175
0e
0O
b1 Q
1`
1,
1]
b1000001 .
b1000001 :
b1000001 [
12
#180
02
#185
1e
b100100001000 0
b100100001000 8
b100100001000 Y
0,
0]
b1 N
0J
b1 U
0`
12
#190
02
#195
0e
1O
1P
b111111111111111111111100000001 Q
1`
1,
1]
b0 .
b0 :
b0 [
12
#200
02
#205
1e
b100100001100 0
b100100001100 8
b100100001100 Y
0,
0]
b100000000 N
1J
1L
b111111111111111111111100000001 U
0`
12
#210
02
#215
0e
b111111111111111111111000000010 Q
1`
1,
1]
b11111111 .
b11111111 :
b11111111 [
12
#220
02
#225
1e
b110100001100 0
b110100001100 8
b110100001100 Y
0,
0]
b111111111111111111111000000010 U
0`
12
#230
02
#235
b111111111111111111110100000011 Q
0e
1`
1,
1]
12
#240
02
#245
1e
b1000100001100 0
b1000100001100 8
b1000100001100 Y
0,
0]
b111111111111111111110100000011 U
0`
12
#250
02
#255
b111111111111111111110000000100 Q
0e
1`
1,
1]
12
#260
02
#265
1e
b1010100001100 0
b1010100001100 8
b1010100001100 Y
0,
0]
b111111111111111111110000000100 U
0`
12
#270
02
#275
b111111111111111111101100000101 Q
0e
1`
1,
1]
12
#280
02
#285
1e
b1100100001100 0
b1100100001100 8
b1100100001100 Y
0,
0]
b111111111111111111101100000101 U
0`
12
#290
02
#295
b111111111111111111101000000110 Q
0e
1`
1,
1]
12
#300
02
#305
1e
b1110100001100 0
b1110100001100 8
b1110100001100 Y
0,
0]
b111111111111111111101000000110 U
0`
12
#310
02
#315
b111111111111111111100100000111 Q
0e
1`
1,
1]
12
#320
02
#325
1e
b10000100001100 0
b10000100001100 8
b10000100001100 Y
0,
0]
b111111111111111111100100000111 U
0`
12
#330
02
#335
b111111111111111111100000001000 Q
0e
1`
1,
1]
12
#340
02
#345
1e
b10010100001100 0
b10010100001100 8
b10010100001100 Y
0,
0]
b111111111111111111100000001000 U
0`
12
#350
02
#355
b111111111111111111011100001001 Q
0e
1`
1,
1]
12
#360
02
#365
1e
b10100100001100 0
b10100100001100 8
b10100100001100 Y
0,
0]
b111111111111111111011100001001 U
0`
12
#370
02
#375
b111111111111111111011000001010 Q
0e
1`
1,
1]
12
#380
02
#385
1e
b10110100001100 0
b10110100001100 8
b10110100001100 Y
0,
0]
b111111111111111111011000001010 U
0`
12
#390
02
#395
b111111111111111111010100001011 Q
0e
1`
1,
1]
12
#400
02
#405
1e
b11000100001100 0
b11000100001100 8
b11000100001100 Y
0,
0]
b111111111111111111010100001011 U
0`
12
#410
02
#415
b111111111111111111010000001100 Q
0e
1`
1,
1]
12
#420
02
#425
1e
b11010100001100 0
b11010100001100 8
b11010100001100 Y
0,
0]
b111111111111111111010000001100 U
0`
12
#430
02
#435
b111111111111111111001100001101 Q
0e
1`
1,
1]
12
#440
02
#445
1e
b11100100001100 0
b11100100001100 8
b11100100001100 Y
0,
0]
b111111111111111111001100001101 U
0`
12
#450
02
#455
b111111111111111111001000001110 Q
0e
1`
1,
1]
12
#460
02
#465
1e
b11110100001100 0
b11110100001100 8
b11110100001100 Y
0,
0]
b111111111111111111001000001110 U
0`
12
#470
02
#475
b111111111111111111000100001111 Q
0e
1`
1,
1]
12
#480
02
#485
1e
b100000100001100 0
b100000100001100 8
b100000100001100 Y
0,
0]
b111111111111111111000100001111 U
0`
12
#490
02
#495
b111111111111111111000000010000 Q
0e
1`
1,
1]
12
#500
02
#505
1e
b100010100001100 0
b100010100001100 8
b100010100001100 Y
0,
0]
b111111111111111111000000010000 U
0`
12
#510
02
#515
b111111111111111110111100010001 Q
0e
1`
1,
1]
12
#520
02
#525
1e
b100100100001100 0
b100100100001100 8
b100100100001100 Y
0,
0]
b111111111111111110111100010001 U
0`
12
#530
02
#535
b111111111111111110111000010010 Q
0e
1`
1,
1]
12
#540
02
#545
1e
b100110100001100 0
b100110100001100 8
b100110100001100 Y
0,
0]
b111111111111111110111000010010 U
0`
12
#550
02
#555
b111111111111111110110100010011 Q
0e
1`
1,
1]
12
#560
02
#565
1e
b101000100001100 0
b101000100001100 8
b101000100001100 Y
0,
0]
b111111111111111110110100010011 U
0`
12
#570
02
#575
b111111111111111110110000010100 Q
0e
1`
1,
1]
12
#580
02
#585
1e
b101010100001100 0
b101010100001100 8
b101010100001100 Y
0,
0]
b111111111111111110110000010100 U
0`
12
#590
02
#595
b111111111111111110101100010101 Q
0e
1`
1,
1]
12
#600
02
#605
1e
b101100100001100 0
b101100100001100 8
b101100100001100 Y
0,
0]
b111111111111111110101100010101 U
0`
12
#610
02
#615
b111111111111111110101000010110 Q
0e
1`
1,
1]
12
#620
02
#625
1e
b101110100001100 0
b101110100001100 8
b101110100001100 Y
0,
0]
b111111111111111110101000010110 U
0`
12
#630
02
#635
b111111111111111110100100010111 Q
0e
1`
1,
1]
12
#640
02
#645
1e
b110000100001100 0
b110000100001100 8
b110000100001100 Y
0,
0]
b111111111111111110100100010111 U
0`
12
#650
02
#655
b111111111111111110100000011000 Q
0e
1`
1,
1]
12
#660
02
#665
1e
b110010100001100 0
b110010100001100 8
b110010100001100 Y
0,
0]
b111111111111111110100000011000 U
0`
12
#670
02
#675
b111111111111111110011100011001 Q
0e
1`
1,
1]
12
#680
02
#685
1e
b110100100001100 0
b110100100001100 8
b110100100001100 Y
0,
0]
b111111111111111110011100011001 U
0`
12
#690
02
#695
b111111111111111110011000011010 Q
0e
1`
1,
1]
12
#700
02
#705
1e
b110110100001100 0
b110110100001100 8
b110110100001100 Y
0,
0]
b111111111111111110011000011010 U
0`
12
#710
02
#715
b111111111111111110010100011011 Q
0e
1`
1,
1]
12
#720
02
#725
1e
b111000100001100 0
b111000100001100 8
b111000100001100 Y
0,
0]
b111111111111111110010100011011 U
0`
12
#730
02
#735
b111111111111111110010000011100 Q
0e
1`
1,
1]
12
#740
02
#745
1e
b111010100001100 0
b111010100001100 8
b111010100001100 Y
0,
0]
b111111111111111110010000011100 U
0`
12
#750
02
#755
b111111111111111110001100011101 Q
0e
1`
1,
1]
12
#760
02
#765
1e
b111100100001100 0
b111100100001100 8
b111100100001100 Y
0,
0]
b111111111111111110001100011101 U
0`
12
#770
02
#775
b111111111111111110001000011110 Q
0e
1`
1,
1]
12
#780
02
#785
1e
b111110100001100 0
b111110100001100 8
b111110100001100 Y
0,
0]
b111111111111111110001000011110 U
0`
12
#790
02
#795
b111111111111111110000100011111 Q
0e
1`
1,
1]
12
#800
02
#805
1e
b1000000100001100 0
b1000000100001100 8
b1000000100001100 Y
0,
0]
b111111111111111110000100011111 U
0`
12
#810
02
#815
b111111111111111110000000100000 Q
0e
1`
1,
1]
12
#820
02
#825
1e
b1000010100001100 0
b1000010100001100 8
b1000010100001100 Y
0,
0]
b111111111111111110000000100000 U
0`
12
#830
02
#835
b111111111111111101111100100001 Q
0e
1`
1,
1]
12
#840
02
#845
1e
b1000100100001100 0
b1000100100001100 8
b1000100100001100 Y
0,
0]
b111111111111111101111100100001 U
0`
12
#850
02
#855
b111111111111111101111000100010 Q
0e
1`
1,
1]
12
#860
02
#865
1e
b1000110100001100 0
b1000110100001100 8
b1000110100001100 Y
0,
0]
b111111111111111101111000100010 U
0`
12
#870
02
#875
b111111111111111101110100100011 Q
0e
1`
1,
1]
12
#880
02
#885
1e
b1001000100001100 0
b1001000100001100 8
b1001000100001100 Y
0,
0]
b111111111111111101110100100011 U
0`
12
#890
02
#895
b111111111111111101110000100100 Q
0e
1`
1,
1]
12
#900
02
#905
1e
b1001010100001100 0
b1001010100001100 8
b1001010100001100 Y
0,
0]
b111111111111111101110000100100 U
0`
12
#910
02
#915
b111111111111111101101100100101 Q
0e
1`
1,
1]
12
#920
02
#925
1e
b1001100100001100 0
b1001100100001100 8
b1001100100001100 Y
0,
0]
b111111111111111101101100100101 U
0`
12
#930
02
#935
b111111111111111101101000100110 Q
0e
1`
1,
1]
12
#940
02
#945
1e
b1001110100001100 0
b1001110100001100 8
b1001110100001100 Y
0,
0]
b111111111111111101101000100110 U
0`
12
#950
02
#955
b111111111111111101100100100111 Q
0e
1`
1,
1]
12
#960
02
#965
1e
b1010000100001100 0
b1010000100001100 8
b1010000100001100 Y
0,
0]
b111111111111111101100100100111 U
0`
12
#970
02
#975
b111111111111111101100000101000 Q
0e
1`
1,
1]
12
#980
02
#985
1e
b1010010100001100 0
b1010010100001100 8
b1010010100001100 Y
0,
0]
b111111111111111101100000101000 U
0`
12
#990
02
#995
b111111111111111101011100101001 Q
0e
1`
1,
1]
12
#1000
02
#1005
1e
b1010100100001100 0
b1010100100001100 8
b1010100100001100 Y
0,
0]
b111111111111111101011100101001 U
0`
12
#1010
02
#1015
b111111111111111101011000101010 Q
0e
1`
1,
1]
12
#1020
02
#1025
1e
b1010110100001100 0
b1010110100001100 8
b1010110100001100 Y
0,
0]
b111111111111111101011000101010 U
0`
12
#1030
02
#1035
b111111111111111101010100101011 Q
0e
1`
1,
1]
12
#1040
02
#1045
1e
b1011000100001100 0
b1011000100001100 8
b1011000100001100 Y
0,
0]
b111111111111111101010100101011 U
0`
12
#1050
02
#1055
b111111111111111101010000101100 Q
0e
1`
1,
1]
12
#1060
02
#1065
1e
b1011010100001100 0
b1011010100001100 8
b1011010100001100 Y
0,
0]
b111111111111111101010000101100 U
0`
12
#1070
02
#1075
b111111111111111101001100101101 Q
0e
1`
1,
1]
12
#1080
02
#1085
1e
b1011100100001100 0
b1011100100001100 8
b1011100100001100 Y
0,
0]
b111111111111111101001100101101 U
0`
12
#1090
02
#1095
b111111111111111101001000101110 Q
0e
1`
1,
1]
12
#1100
02
#1105
1e
b1011110100001100 0
b1011110100001100 8
b1011110100001100 Y
0,
0]
b111111111111111101001000101110 U
0`
12
#1110
02
#1115
b111111111111111101000100101111 Q
0e
1`
1,
1]
12
#1120
02
#1125
1e
b1100000100001100 0
b1100000100001100 8
b1100000100001100 Y
0,
0]
b111111111111111101000100101111 U
0`
12
#1130
02
#1135
b111111111111111101000000110000 Q
0e
1`
1,
1]
12
#1140
02
#1145
1e
b1100010100001100 0
b1100010100001100 8
b1100010100001100 Y
0,
0]
b111111111111111101000000110000 U
0`
12
#1150
02
#1155
b111111111111111100111100110001 Q
0e
1`
1,
1]
12
#1160
02
#1165
1e
b1100100100001100 0
b1100100100001100 8
b1100100100001100 Y
0,
0]
b111111111111111100111100110001 U
0`
12
#1170
02
#1175
b111111111111111100111000110010 Q
0e
1`
1,
1]
12
#1180
02
#1185
1e
b1100110100001100 0
b1100110100001100 8
b1100110100001100 Y
0,
0]
b111111111111111100111000110010 U
0`
12
#1190
02
#1195
b111111111111111100110100110011 Q
0e
1`
1,
1]
12
#1200
02
#1205
1e
b1101000100001100 0
b1101000100001100 8
b1101000100001100 Y
0,
0]
b111111111111111100110100110011 U
0`
12
#1210
02
#1215
b111111111111111100110000110100 Q
0e
1`
1,
1]
12
#1220
02
#1225
1e
b1101010100001100 0
b1101010100001100 8
b1101010100001100 Y
0,
0]
b111111111111111100110000110100 U
0`
12
#1230
02
#1235
b111111111111111100101100110101 Q
0e
1`
1,
1]
12
#1240
02
#1245
1e
b1101100100001100 0
b1101100100001100 8
b1101100100001100 Y
0,
0]
b111111111111111100101100110101 U
0`
12
#1250
02
#1255
b111111111111111100101000110110 Q
0e
1`
1,
1]
12
#1260
02
#1265
1e
b1101110100001100 0
b1101110100001100 8
b1101110100001100 Y
0,
0]
b111111111111111100101000110110 U
0`
12
#1270
02
#1275
b111111111111111100100100110111 Q
0e
1`
1,
1]
12
#1280
02
#1285
1e
b1110000100001100 0
b1110000100001100 8
b1110000100001100 Y
0,
0]
b111111111111111100100100110111 U
0`
12
#1290
02
#1295
b111111111111111100100000111000 Q
0e
1`
1,
1]
12
#1300
02
#1305
1e
b1110010100001100 0
b1110010100001100 8
b1110010100001100 Y
0,
0]
b111111111111111100100000111000 U
0`
12
#1310
02
#1315
b111111111111111100011100111001 Q
0e
1`
1,
1]
12
#1320
02
#1325
1e
b1110100100001100 0
b1110100100001100 8
b1110100100001100 Y
0,
0]
b111111111111111100011100111001 U
0`
12
#1330
02
#1335
b111111111111111100011000111010 Q
0e
1`
1,
1]
12
#1340
02
#1345
1e
b1110110100001100 0
b1110110100001100 8
b1110110100001100 Y
0,
0]
b111111111111111100011000111010 U
0`
12
#1350
02
#1355
b111111111111111100010100111011 Q
0e
1`
1,
1]
12
#1360
02
#1365
1e
b1111000100001100 0
b1111000100001100 8
b1111000100001100 Y
0,
0]
b111111111111111100010100111011 U
0`
12
#1370
02
#1375
b111111111111111100010000111100 Q
0e
1`
1,
1]
12
#1380
02
#1385
1e
b1111010100001100 0
b1111010100001100 8
b1111010100001100 Y
0,
0]
b111111111111111100010000111100 U
0`
12
#1390
02
#1395
b111111111111111100001100111101 Q
0e
1`
1,
1]
12
#1400
02
#1405
1e
b1111100100001100 0
b1111100100001100 8
b1111100100001100 Y
0,
0]
b111111111111111100001100111101 U
0`
12
#1410
02
#1415
b111111111111111100001000111110 Q
0e
1`
1,
1]
12
#1420
02
#1425
1e
b1111110100001100 0
b1111110100001100 8
b1111110100001100 Y
0,
0]
b111111111111111100001000111110 U
0`
12
#1430
02
#1435
b111111111111111100000100111111 Q
0e
1`
1,
1]
12
#1440
02
#1445
1e
b10000000100001100 0
b10000000100001100 8
b10000000100001100 Y
0,
0]
b111111111111111100000100111111 U
0`
12
#1450
02
#1455
b111111111111111100000001000000 Q
0e
1`
1,
1]
12
#1460
02
#1465
1e
b10000010100001100 0
b10000010100001100 8
b10000010100001100 Y
0,
0]
b111111111111111100000001000000 U
0`
12
#1470
02
#1475
b111111111111111011111101000001 Q
0e
1`
1,
1]
12
#1480
02
#1485
1e
b10000100100001100 0
b10000100100001100 8
b10000100100001100 Y
0,
0]
b111111111111111011111101000001 U
0`
12
#1490
02
#1495
b111111111111111011111001000010 Q
0e
1`
1,
1]
12
#1500
02
#1505
1e
b10000110100001100 0
b10000110100001100 8
b10000110100001100 Y
0,
0]
b111111111111111011111001000010 U
0`
12
#1510
02
#1515
b111111111111111011110101000011 Q
0e
1`
1,
1]
12
#1520
02
#1525
1e
b10001000100001100 0
b10001000100001100 8
b10001000100001100 Y
0,
0]
b111111111111111011110101000011 U
0`
12
#1530
02
#1535
b111111111111111011110001000100 Q
0e
1`
1,
1]
12
#1540
02
#1545
1e
b10001010100001100 0
b10001010100001100 8
b10001010100001100 Y
0,
0]
b111111111111111011110001000100 U
0`
12
#1550
02
#1555
b111111111111111011101101000101 Q
0e
1`
1,
1]
12
#1560
02
#1565
1e
b10001100100001100 0
b10001100100001100 8
b10001100100001100 Y
0,
0]
b111111111111111011101101000101 U
0`
12
#1570
02
#1575
b111111111111111011101001000110 Q
0e
1`
1,
1]
12
#1580
02
#1585
1e
b10001110100001100 0
b10001110100001100 8
b10001110100001100 Y
0,
0]
b111111111111111011101001000110 U
0`
12
#1590
02
#1595
b111111111111111011100101000111 Q
0e
1`
1,
1]
12
#1600
02
#1605
1e
b10010000100001100 0
b10010000100001100 8
b10010000100001100 Y
0,
0]
b111111111111111011100101000111 U
0`
12
#1610
02
#1615
b111111111111111011100001001000 Q
0e
1`
1,
1]
12
#1620
02
#1625
1e
b10010010100001100 0
b10010010100001100 8
b10010010100001100 Y
0,
0]
b111111111111111011100001001000 U
0`
12
#1630
02
#1635
b111111111111111011011101001001 Q
0e
1`
1,
1]
12
#1640
02
#1645
1e
b10010100100001100 0
b10010100100001100 8
b10010100100001100 Y
0,
0]
b111111111111111011011101001001 U
0`
12
#1650
02
#1655
b111111111111111011011001001010 Q
0e
1`
1,
1]
12
#1660
02
#1665
1e
b10010110100001100 0
b10010110100001100 8
b10010110100001100 Y
0,
0]
b111111111111111011011001001010 U
0`
12
#1670
02
#1675
b111111111111111011010101001011 Q
0e
1`
1,
1]
12
#1680
02
#1685
1e
b10011000100001100 0
b10011000100001100 8
b10011000100001100 Y
0,
0]
b111111111111111011010101001011 U
0`
12
#1690
02
#1695
b111111111111111011010001001100 Q
0e
1`
1,
1]
12
#1700
02
#1705
1e
b10011010100001100 0
b10011010100001100 8
b10011010100001100 Y
0,
0]
b111111111111111011010001001100 U
0`
12
#1710
02
#1715
b111111111111111011001101001101 Q
0e
1`
1,
1]
12
#1720
02
#1725
1e
b10011100100001100 0
b10011100100001100 8
b10011100100001100 Y
0,
0]
b111111111111111011001101001101 U
0`
12
#1730
02
#1735
b111111111111111011001001001110 Q
0e
1`
1,
1]
12
#1740
02
#1745
1e
b10011110100001100 0
b10011110100001100 8
b10011110100001100 Y
0,
0]
b111111111111111011001001001110 U
0`
12
#1750
02
#1755
b111111111111111011000101001111 Q
0e
1`
1,
1]
12
#1760
02
#1765
1e
b10100000100001100 0
b10100000100001100 8
b10100000100001100 Y
0,
0]
b111111111111111011000101001111 U
0`
12
#1770
02
#1775
b111111111111111011000001010000 Q
0e
1`
1,
1]
12
#1780
02
#1785
1e
b10100010100001100 0
b10100010100001100 8
b10100010100001100 Y
0,
0]
b111111111111111011000001010000 U
0`
12
#1790
02
#1795
b111111111111111010111101010001 Q
0e
1`
1,
1]
12
#1800
02
#1805
1e
b10100100100001100 0
b10100100100001100 8
b10100100100001100 Y
0,
0]
b111111111111111010111101010001 U
0`
12
#1810
02
#1815
b111111111111111010111001010010 Q
0e
1`
1,
1]
12
#1820
02
#1825
1e
b10100110100001100 0
b10100110100001100 8
b10100110100001100 Y
0,
0]
b111111111111111010111001010010 U
0`
12
#1830
02
#1835
b111111111111111010110101010011 Q
0e
1`
1,
1]
12
#1840
02
#1845
1e
b10101000100001100 0
b10101000100001100 8
b10101000100001100 Y
0,
0]
b111111111111111010110101010011 U
0`
12
#1850
02
#1855
b111111111111111010110001010100 Q
0e
1`
1,
1]
12
#1860
02
#1865
1e
b10101010100001100 0
b10101010100001100 8
b10101010100001100 Y
0,
0]
b111111111111111010110001010100 U
0`
12
#1870
02
#1875
b111111111111111010101101010101 Q
0e
1`
1,
1]
12
#1880
02
#1885
1e
b10101100100001100 0
b10101100100001100 8
b10101100100001100 Y
0,
0]
b111111111111111010101101010101 U
0`
12
#1890
02
#1895
b111111111111111010101001010110 Q
0e
1`
1,
1]
12
#1900
02
#1905
1e
b10101110100001100 0
b10101110100001100 8
b10101110100001100 Y
0,
0]
b111111111111111010101001010110 U
0`
12
#1910
02
#1915
b111111111111111010100101010111 Q
0e
1`
1,
1]
12
#1920
02
#1925
1e
b10110000100001100 0
b10110000100001100 8
b10110000100001100 Y
0,
0]
b111111111111111010100101010111 U
0`
12
#1930
02
#1935
b111111111111111010100001011000 Q
0e
1`
1,
1]
12
#1940
02
#1945
1e
b10110010100001100 0
b10110010100001100 8
b10110010100001100 Y
0,
0]
b111111111111111010100001011000 U
0`
12
#1950
02
#1955
b111111111111111010011101011001 Q
0e
1`
1,
1]
12
#1960
02
#1965
1e
b10110100100001100 0
b10110100100001100 8
b10110100100001100 Y
0,
0]
b111111111111111010011101011001 U
0`
12
#1970
02
#1975
b111111111111111010011001011010 Q
0e
1`
1,
1]
12
#1980
02
#1985
1e
b10110110100001100 0
b10110110100001100 8
b10110110100001100 Y
0,
0]
b111111111111111010011001011010 U
0`
12
#1990
02
#1995
b111111111111111010010101011011 Q
0e
1`
1,
1]
12
#2000
02
#2005
1e
b10111000100001100 0
b10111000100001100 8
b10111000100001100 Y
0,
0]
b111111111111111010010101011011 U
0`
12
#2010
02
#2015
b111111111111111010010001011100 Q
0e
1`
1,
1]
12
#2020
02
#2025
1e
b10111010100001100 0
b10111010100001100 8
b10111010100001100 Y
0,
0]
b111111111111111010010001011100 U
0`
12
#2030
02
#2035
b111111111111111010001101011101 Q
0e
1`
1,
1]
12
#2040
02
#2045
1e
b10111100100001100 0
b10111100100001100 8
b10111100100001100 Y
0,
0]
b111111111111111010001101011101 U
0`
12
#2050
02
#2055
b111111111111111010001001011110 Q
0e
1`
1,
1]
12
#2060
02
#2065
1e
b10111110100001100 0
b10111110100001100 8
b10111110100001100 Y
0,
0]
b111111111111111010001001011110 U
0`
12
#2070
02
#2075
b111111111111111010000101011111 Q
0e
1`
1,
1]
12
#2080
02
#2085
1e
b11000000100001100 0
b11000000100001100 8
b11000000100001100 Y
0,
0]
b111111111111111010000101011111 U
0`
12
#2090
02
#2095
b111111111111111010000001100000 Q
0e
1`
1,
1]
12
#2100
02
#2105
1e
b11000010100001100 0
b11000010100001100 8
b11000010100001100 Y
0,
0]
b111111111111111010000001100000 U
0`
12
#2110
02
#2115
b111111111111111001111101100001 Q
0e
1`
1,
1]
12
#2120
02
#2125
1e
b11000100100001100 0
b11000100100001100 8
b11000100100001100 Y
0,
0]
b111111111111111001111101100001 U
0`
12
#2130
02
#2135
b111111111111111001111001100010 Q
0e
1`
1,
1]
12
#2140
02
#2145
1e
b11000110100001100 0
b11000110100001100 8
b11000110100001100 Y
0,
0]
b111111111111111001111001100010 U
0`
12
#2150
02
#2155
b111111111111111001110101100011 Q
0e
1`
1,
1]
12
#2160
02
#2165
1e
b11001000100001100 0
b11001000100001100 8
b11001000100001100 Y
0,
0]
b111111111111111001110101100011 U
0`
12
#2170
02
#2175
b111111111111111001110001100100 Q
0e
1`
1,
1]
12
#2180
02
#2185
1e
b11001010100001100 0
b11001010100001100 8
b11001010100001100 Y
0,
0]
b111111111111111001110001100100 U
0`
12
#2190
02
#2195
b111111111111111001101101100101 Q
0e
1`
1,
1]
12
#2200
02
#2205
1e
b11001100100001100 0
b11001100100001100 8
b11001100100001100 Y
0,
0]
b111111111111111001101101100101 U
0`
12
#2210
02
#2215
b111111111111111001101001100110 Q
0e
1`
1,
1]
12
#2220
02
#2225
1e
b11001110100001100 0
b11001110100001100 8
b11001110100001100 Y
0,
0]
b111111111111111001101001100110 U
0`
12
#2230
02
#2235
b111111111111111001100101100111 Q
0e
1`
1,
1]
12
#2240
02
#2245
1e
b11010000100001100 0
b11010000100001100 8
b11010000100001100 Y
0,
0]
b111111111111111001100101100111 U
0`
12
#2250
02
#2255
b111111111111111001100001101000 Q
0e
1`
1,
1]
12
#2260
02
#2265
1e
b11010010100001100 0
b11010010100001100 8
b11010010100001100 Y
0,
0]
b111111111111111001100001101000 U
0`
12
#2270
02
#2275
b111111111111111001011101101001 Q
0e
1`
1,
1]
12
#2280
02
#2285
1e
b11010100100001100 0
b11010100100001100 8
b11010100100001100 Y
0,
0]
b111111111111111001011101101001 U
0`
12
#2290
02
#2295
b111111111111111001011001101010 Q
0e
1`
1,
1]
12
#2300
02
#2305
1e
b11010110100001100 0
b11010110100001100 8
b11010110100001100 Y
0,
0]
b111111111111111001011001101010 U
0`
12
#2310
02
#2315
b111111111111111001010101101011 Q
0e
1`
1,
1]
12
#2320
02
#2325
1e
b11011000100001100 0
b11011000100001100 8
b11011000100001100 Y
0,
0]
b111111111111111001010101101011 U
0`
12
#2330
02
#2335
b111111111111111001010001101100 Q
0e
1`
1,
1]
12
#2340
02
#2345
1e
b11011010100001100 0
b11011010100001100 8
b11011010100001100 Y
0,
0]
b111111111111111001010001101100 U
0`
12
#2350
02
#2355
b111111111111111001001101101101 Q
0e
1`
1,
1]
12
#2360
02
#2365
1e
b11011100100001100 0
b11011100100001100 8
b11011100100001100 Y
0,
0]
b111111111111111001001101101101 U
0`
12
#2370
02
#2375
b111111111111111001001001101110 Q
0e
1`
1,
1]
12
#2380
02
#2385
1e
b11011110100001100 0
b11011110100001100 8
b11011110100001100 Y
0,
0]
b111111111111111001001001101110 U
0`
12
#2390
02
#2395
b111111111111111001000101101111 Q
0e
1`
1,
1]
12
#2400
02
#2405
1e
b11100000100001100 0
b11100000100001100 8
b11100000100001100 Y
0,
0]
b111111111111111001000101101111 U
0`
12
#2410
02
#2415
b111111111111111001000001110000 Q
0e
1`
1,
1]
12
#2420
02
#2425
1e
b11100010100001100 0
b11100010100001100 8
b11100010100001100 Y
0,
0]
b111111111111111001000001110000 U
0`
12
#2430
02
#2435
b111111111111111000111101110001 Q
0e
1`
1,
1]
12
#2440
02
#2445
1e
b11100100100001100 0
b11100100100001100 8
b11100100100001100 Y
0,
0]
b111111111111111000111101110001 U
0`
12
#2450
02
#2455
b111111111111111000111001110010 Q
0e
1`
1,
1]
12
#2460
02
#2465
1e
b11100110100001100 0
b11100110100001100 8
b11100110100001100 Y
0,
0]
b111111111111111000111001110010 U
0`
12
#2470
02
